<?xml version="1.0" encoding="UTF-8" standalone="no"?>
<!-- Created with Inkscape (http://www.inkscape.org/) -->

<svg
   xmlns:dc="http://purl.org/dc/elements/1.1/"
   xmlns:cc="http://creativecommons.org/ns#"
   xmlns:rdf="http://www.w3.org/1999/02/22-rdf-syntax-ns#"
   xmlns:svg="http://www.w3.org/2000/svg"
   xmlns="http://www.w3.org/2000/svg"
   xmlns:sodipodi="http://sodipodi.sourceforge.net/DTD/sodipodi-0.dtd"
   xmlns:inkscape="http://www.inkscape.org/namespaces/inkscape"
   width="64px"
   height="64px"
   viewBox="0 0 64 64"
   version="1.1"
   id="SVGRoot"
   inkscape:version="0.92.3 (2405546, 2018-03-11)"
   sodipodi:docname="icon2_grey.svg">
  <sodipodi:namedview
     id="base"
     pagecolor="#ffffff"
     bordercolor="#666666"
     borderopacity="1.0"
     inkscape:pageopacity="0.0"
     inkscape:pageshadow="2"
     inkscape:zoom="11.313708"
     inkscape:cx="17.615683"
     inkscape:cy="40.588843"
     inkscape:document-units="px"
     inkscape:current-layer="layer1"
     showgrid="false"
     inkscape:window-width="1920"
     inkscape:window-height="1009"
     inkscape:window-x="0"
     inkscape:window-y="35"
     inkscape:window-maximized="1"
     inkscape:grid-bbox="true" />
  <defs
     id="defs3732" />
  <metadata
     id="metadata3735">
    <rdf:RDF>
      <cc:Work
         rdf:about="">
        <dc:format>image/svg+xml</dc:format>
        <dc:type
           rdf:resource="http://purl.org/dc/dcmitype/StillImage" />
        <dc:title />
      </cc:Work>
    </rdf:RDF>
  </metadata>
  <g
     id="layer1"
     inkscape:groupmode="layer"
     inkscape:label="Layer 1"
     style="opacity:1">
    <circle
       id="path3752"
       cx="32.125"
       cy="32.125"
       r="32.125"
       style="opacity:1;fill-opacity:0.99465239;fill:#b3b3b3" />
    <g
       id="g4920"
       style="opacity:1">
      <path
         sodipodi:nodetypes="ccccccc"
         inkscape:connector-curvature="0"
         id="path4563"
         d="M 7.0082144,50.151535 20.63439,25.812521 33.844281,49.97391 26.422616,36.166434 39.383608,7.7574383 57.212088,50.414519 Z"
         style="fill:none;stroke:#000000;stroke-width:0.85916656px;stroke-linecap:butt;stroke-linejoin:miter;stroke-opacity:1" />
      <path
         sodipodi:nodetypes="ccccccc"
         inkscape:connector-curvature="0"
         id="path4565"
         d="m 17.279922,31.937127 1.281631,2.187611 1.856155,-2.12132 1.679379,1.944544 1.679379,-2.209709 -3.142076,-5.925732 z"
         style="fill:none;stroke:#000000;stroke-width:1px;stroke-linecap:butt;stroke-linejoin:miter;stroke-opacity:1" />
      <path
         sodipodi:nodetypes="ccccccc"
         inkscape:connector-curvature="0"
         id="path4567"
         d="m 36.636971,14.082681 1.016465,2.010835 1.59099,-2.121321 1.679379,1.944544 0.883884,-2.032932 -2.424081,-6.1263687 z"
         style="fill:none;stroke:#000000;stroke-width:1px;stroke-linecap:butt;stroke-linejoin:miter;stroke-opacity:1" />
    </g>
    <path
       style="opacity:1;fill:#80b3ff;fill-opacity:0.9946523;stroke-width:0.08838835"
       d="m 18.253923,32.528 -0.349313,-0.605876 1.336041,-2.442312 c 0.734823,-1.343272 1.357181,-2.442857 1.383018,-2.443522 0.05493,-0.0014 2.472091,4.532871 2.472091,4.63732 0,0.03877 -0.227258,0.367202 -0.505017,0.729842 L 22.085725,33.062797 21.77315,32.721206 C 21.601234,32.53333 21.221927,32.11021 20.930246,31.780939 l -0.530331,-0.598675 -0.839689,0.975653 c -0.461829,0.536609 -0.866082,0.975721 -0.89834,0.975805 -0.03226,8.4e-5 -0.215841,-0.272491 -0.407963,-0.605722 z"
       id="path4998"
       inkscape:connector-curvature="0" />
    <path
       style="opacity:1;fill:#80b3ff;fill-opacity:0.9946523;stroke-width:0.08838835"
       d="m 18.276463,32.581448 c -0.182684,-0.303835 -0.333174,-0.594331 -0.334421,-0.645546 -0.0029,-0.119688 2.616502,-4.900823 2.684991,-4.900823 0.05964,0 2.468727,4.526336 2.468727,4.638391 0,0.04106 -0.224636,0.373105 -0.499191,0.737885 l -0.499192,0.663236 -0.362595,-0.390203 c -0.199427,-0.214611 -0.581356,-0.639713 -0.848731,-0.944672 l -0.486136,-0.554469 -0.83231,0.974314 c -0.457771,0.535873 -0.860813,0.974314 -0.89565,0.974314 -0.03484,0 -0.212808,-0.248592 -0.395492,-0.552427 z"
       id="path5000"
       inkscape:connector-curvature="0" />
    <path
       style="opacity:1;fill:#80b3ff;fill-opacity:0.9946523;stroke-width:0.08838835"
       d="m 18.270042,32.581448 c -0.179509,-0.303835 -0.327255,-0.594611 -0.328325,-0.646169 -0.0026,-0.123876 2.612044,-4.9002 2.682424,-4.9002 0.05017,0 2.146004,3.892177 2.390087,4.438636 0.100294,0.224539 0.07393,0.284506 -0.404647,0.920351 l -0.511931,0.680162 -0.408038,-0.434215 c -0.224421,-0.238819 -0.606411,-0.661215 -0.848867,-0.938658 l -0.44083,-0.504443 -0.834981,0.968481 c -0.45924,0.532665 -0.865026,0.968482 -0.901747,0.968482 -0.03672,0 -0.213636,-0.248592 -0.393145,-0.552427 z"
       id="path5002"
       inkscape:connector-curvature="0" />
    <path
       style="opacity:1;fill:#dbdbe3;fill-opacity:0.9946523;stroke-width:0.08838835"
       d="m 18.24444,32.543934 c -0.291614,-0.486922 -0.337013,-0.621976 -0.25998,-0.773398 0.457929,-0.90014 2.59852,-4.735457 2.642982,-4.735457 0.05217,0 2.135471,3.873773 2.387081,4.438636 0.09987,0.224212 0.07365,0.284477 -0.394126,0.90598 -0.275613,0.366186 -0.529999,0.663362 -0.565303,0.660392 -0.0353,-0.003 -0.402274,-0.400375 -0.815489,-0.883122 -0.413216,-0.482747 -0.791076,-0.875338 -0.83969,-0.872423 -0.04861,0.0029 -0.441867,0.420206 -0.873897,0.927316 -0.43203,0.507109 -0.81763,0.922017 -0.856888,0.922017 -0.03926,0 -0.23037,-0.265473 -0.42469,-0.589941 z"
       id="path5014"
       inkscape:connector-curvature="0" />
    <path
       style="opacity:1;fill:#dbdbe3;fill-opacity:0.9946523;stroke-width:0.08838835"
       d="m 37.480091,14.531902 -0.236573,-0.482363 1.035193,-2.390259 c 0.569356,-1.314642 1.055331,-2.3902238 1.079946,-2.390181 0.02461,4.27e-5 0.452352,1.033489 0.950528,2.296548 l 0.905774,2.29647 -0.198668,0.487562 c -0.109267,0.268159 -0.222767,0.487617 -0.252223,0.487685 -0.02945,6.8e-5 -0.382073,-0.378799 -0.783595,-0.841926 -0.505034,-0.582519 -0.76095,-0.816113 -0.830328,-0.757901 -0.05516,0.04628 -0.378711,0.463722 -0.719007,0.927647 -0.340295,0.463925 -0.640263,0.844756 -0.666596,0.84629 -0.02633,0.0015 -0.154336,-0.214273 -0.284451,-0.479572 z"
       id="path5016"
       inkscape:connector-curvature="0" />
    <path
       style="opacity:1;fill:#6f6f91;fill-opacity:0.9946523;stroke-width:0.08838835"
       d="m 19.339255,49.746005 c -5.250268,-0.03195 -9.9893476,-0.0638 -10.5312887,-0.0708 L 7.8226187,49.662496 12.43738,41.420283 c 2.538119,-4.533218 4.65224,-8.309307 4.698047,-8.39131 0.06712,-0.120154 0.201385,0.05635 0.691687,0.909291 0.334619,0.582112 0.637076,1.046953 0.672125,1.032979 0.03505,-0.01397 0.472284,-0.493325 0.971632,-1.065225 0.747791,-0.85644 0.930296,-1.021237 1.034863,-0.934454 0.06983,0.05795 0.445929,0.476151 0.835783,0.929333 0.389855,0.453183 0.739416,0.823968 0.776802,0.823968 0.03739,0 0.416719,-0.457409 0.842959,-1.016466 0.426241,-0.559056 0.802781,-1.016466 0.836757,-1.016466 0.06131,0 9.373997,16.97726 9.373997,17.089025 0,0.03207 -0.964538,0.0504 -2.143418,0.04072 -1.178879,-0.0097 -6.439091,-0.04373 -11.689359,-0.07568 z"
       id="path5018"
       inkscape:connector-curvature="0" />
    <path
       style="opacity:1;fill:#6f6f91;fill-opacity:0.9946523;stroke-width:0.08838835"
       d="m 40.000032,49.861381 c -3.172037,-0.01286 -5.76734,-0.05521 -5.76734,-0.09411 0,-0.0389 -1.630765,-3.103119 -3.623922,-6.809384 -1.993158,-3.706265 -3.623923,-6.772059 -3.623923,-6.812875 0,-0.09845 9.44353,-20.798528 9.526121,-20.881118 0.03525,-0.03525 0.282831,0.351227 0.550186,0.858833 0.267356,0.507606 0.505988,0.921807 0.530295,0.920448 0.02431,-0.0014 0.396381,-0.478309 0.826831,-1.059886 0.43045,-0.581578 0.816381,-1.057414 0.857623,-1.057414 0.04124,0 0.444777,0.434679 0.896742,0.965953 0.451966,0.531274 0.847196,0.968797 0.87829,0.972272 0.0311,0.0035 0.226853,-0.392556 0.43502,-0.880068 0.208166,-0.487513 0.409167,-0.855429 0.446668,-0.817593 0.05022,0.05067 9.990469,23.769927 14.225072,33.943629 l 0.340306,0.817592 -5.365315,-0.02144 c -2.950923,-0.0118 -7.960618,-0.03197 -11.132654,-0.04483 z"
       id="path5020"
       inkscape:connector-curvature="0" />
  </g>
</svg>
